
{
	"title": "AddHabitat",
	"type": "object",
	"description": "Send by the client to add a new habitat",
	"properties": {
		"habitatName": {
			"type": "string",
			  "description": "The new habitat"
		}
	},
	  "required": ["habitatName"]
}
