{
	"title": "AddSpecies",
	"type": "object",
	"description": "Send by the client to add a new type",
	"properties": {
		"speciesName": {
			"type": "string",
			  "description": "The new species"
		}
	},
	  "required": ["speciesName"]
}
