
{
	"title": "GetHabitatResponse",
	"type": "object",
	"description": "Send by the server",
	"properties": {
		"habitat": {
			"type": "object",
			 "description": "The habitat list"
		}
	},
	  "required": ["habitat"]
}
