
{
	"title": "RemoveHabitat",
	"type": "object",
	"description": "Send by the client to remove a habitat",
	"properties": {
		"habitatName": {
			"type": "string",
			  "description": "The habitat"
		}
	},
	  "required": ["habitatName"]
}
