
{
	"title": "SpeciesRemoveEvolution",
	"type": "object",
	"description": "Send by the client to remove an evolution from a species",
	"properties": {
		"speciesName": {
			"type": "string",
			  "description": "The species, which should lose an evolution"
		},
      "id": {
          "type": "integer",
          "description": "Unique ID of the evolution requirement"
      }
	},
	  "required": ["speciesName", "id"]
}
